2 Cleaning the data | An Analysis of LottoMax Winning Numbers
…
2 Cleaning the data

2.1 Packages

library(tidyverse)
library(lubridate)

2.2 Load the data

lottomax <- readRDS("./data/lottomax.RDS")

lottomax

## # A tibble: 240 x 3
##    year  date                                result                             
##    <chr> <chr>                               <chr>                              
##  1 2019  "December 31 2019\r\n\t\t\t\t\t\t\~ "3\r\n\t\t\t\t\t\t\t\t\t\t\t\t\t\t~
##  2 2019  "December 27 2019\r\n\t\t\t\t\t\t\~ "13\r\n\t\t\t\t\t\t\t\t\t\t\t\t\t\~
##  3 2019  "December 24 2019\r\n\t\t\t\t\t\t\~ "1\r\n\t\t\t\t\t\t\t\t\t\t\t\t\t\t~
##  4 2019  "December 20 2019\r\n\t\t\t\t\t\t\~ "14\r\n\t\t\t\t\t\t\t\t\t\t\t\t\t\~
##  5 2019  "December 17 2019"                  "19\r\n\t\t\t\t\t\t\t\t\t\t\t\t\t\~
##  6 2019  "December 13 2019"                  "2\r\n\t\t\t\t\t\t\t\t\t\t\t\t\t\t~
##  7 2019  "December 10 2019"                  "7\r\n\t\t\t\t\t\t\t\t\t\t\t\t\t\t~
##  8 2019  "December 6 2019"                   "9\r\n\t\t\t\t\t\t\t\t\t\t\t\t\t\t~
##  9 2019  "December 3 2019"                   "2\r\n\t\t\t\t\t\t\t\t\t\t\t\t\t\t~
## 10 2019  "November 29 2019"                  "3\r\n\t\t\t\t\t\t\t\t\t\t\t\t\t\t~
## # ... with 230 more rows
…
lottomax_clean

## # A tibble: 221 x 3
##    year  date       result                 
##    <fct> <date>     <chr>                  
##  1 2019  2019-05-14 9 24 27 33 40 44 48 41 
##  2 2019  2019-05-17 4 21 23 39 40 42 50 17 
##  3 2019  2019-05-21 2 3 8 18 31 39 50 33   
##  4 2019  2019-05-24 9 11 15 19 20 35 41 28 
##  5 2019  2019-05-28 4 9 10 26 27 29 37 14  
##  6 2019  2019-05-31 6 29 34 39 42 47 50 22 
##  7 2019  2019-06-04 7 19 22 28 34 41 42 12 
##  8 2019  2019-06-07 4 8 13 23 25 33 39 17  
##  9 2019  2019-06-11 18 23 28 32 34 44 50 29
## 10 2019  2019-06-14 4 11 20 22 37 44 49 13 
## # ... with 211 more rows
…
Long version for regular numerical summaries

2.3.1 Wide version

lottomax_wide <- lottomax_clean %>%
  # Separate all numbers into their own columns
  # Set `remove=FALSE` to check if we did it correctly
  separate(result, into=c(glue::glue("num{1:7}"), "bonus"), sep=" ", remove=FALSE) %>%
  # Conversion of strings to numbers that we can work with
  mutate(across(c(num1:num7, bonus), parse_integer)) 

lottomax_wide

## # A tibble: 221 x 11
##    year  date       result        num1  num2  num3  num4  num5  num6  num7 bonus
##    <fct> <date>     <chr>        <int> <int> <int> <int> <int> <int> <int> <int>
##  1 2019  2019-05-14 9 24 27 33 ~     9    24    27    33    40    44    48    41
##  2 2019  2019-05-17 4 21 23 39 ~     4    21    23    39    40    42    50    17
##  3 2019  2019-05-21 2 3 8 18 31~     2     3     8    18    31    39    50    33
##  4 2019  2019-05-24 9 11 15 19 ~     9    11    15    19    20    35    41    28
##  5 2019  2019-05-28 4 9 10 26 2~     4     9    10    26    27    29    37    14
##  6 2019  2019-05-31 6 29 34 39 ~     6    29    34    39    42    47    50    22
##  7 2019  2019-06-04 7 19 22 28 ~     7    19    22    28    34    41    42    12
##  8 2019  2019-06-07 4 8 13 23 2~     4     8    13    23    25    33    39    17
##  9 2019  2019-06-11 18 23 28 32~    18    23    28    32    34    44    50    29
## 10 2019  2019-06-14 4 11 20 22 ~     4    11    20    22    37    44    49    13
## # ... with 211 more rows

saveRDS(lottomax_wide, "./data/lottomax_wide.RDS", version=2)

2.3.2 Long version

lottomax_long <- lottomax_wide %>%
  pivot_longer(
    cols = c(num1:num7, bonus),
    names_to = "role",
    values_to = "number"
  )

lottomax_long

## # A tibble: 1,768 x 5
##    year  date       result                 role  number
##    <fct> <date>     <chr>                  <chr>  <int>
##  1 2019  2019-05-14 9 24 27 33 40 44 48 41 num1       9
##  2 2019  2019-05-14 9 24 27 33 40 44 48 41 num2      24
##  3 2019  2019-05-14 9 24 27 33 40 44 48 41 num3      27
##  4 2019  2019-05-14 9 24 27 33 40 44 48 41 num4      33
##  5 2019  2019-05-14 9 24 27 33 40 44 48 41 num5      40
##  6 2019  2019-05-14 9 24 27 33 40 44 48 41 num6      44
##  7 2019  2019-05-14 9 24 27 33 40 44 48 41 num7      48
##  8 2019  2019-05-14 9 24 27 33 40 44 48 41 bonus     41
##  9 2019  2019-05-17 4 21 23 39 40 42 50 17 num1       4
## 10 2019  2019-05-17 4 21 23 39 40 42 50 17 num2      21
## # ... with 1,758 more rows
…
